^C:\USERS\300050763\SOURCE\REPOS\ARRAYSDEMO\ARRAYSDEMO\MAIN.CPP
C:\USERS\300050763\SOURCE\REPOS\ARRAYSDEMO\ARRAYSDEMO\DEBUG\VC141.PDB
C:\USERS\300050763\SOURCE\REPOS\ARRAYSDEMO\ARRAYSDEMO\DEBUG\VC141.IDB
C:\USERS\300050763\SOURCE\REPOS\ARRAYSDEMO\ARRAYSDEMO\DEBUG\MAIN.OBJ
